{
    "orgName": "GitLab Pipelines",
    "edition": "Developer",
    "adminEmail": "nagarajand1975@gmail.com",
  "description": "Scratch Org for 2GP",
  "hasSampleData": "true",
  "features": ["EnableSetPasswordInApi"],
  "settings": {
    "lightningExperienceSettings": {
      "enableS1DesktopEnabled": true
    },
    "mobileSettings": {
      "enableS1EncryptedStoragePref2": false
    }
  }
}